R demo - Tim Stuart
…
The readr way

Some docs

library(readr)

read_tsv("../data/r_demo/coverages.tsv", col_names = c("Accession", "Coverage"))

## Parsed with column specification:
## cols(
##   Accession = col_character(),
##   Coverage = col_double()
## )

## # A tibble: 216 x 2
##    Accession Coverage
##    <chr>        <dbl>
##  1 Aa-0            41
##  2 Abd-0           67
##  3 Ag-0            47
##  4 Ak-1            38
##  5 Alst-1          42
##  6 Altai-5         42
##  7 Amel-1          60
##  8 An-1            39
##  9 Ang-0           48
## 10 Anholt-1        53
## # … with 206 more rows

# also works for gzipped files
read_tsv("../data/r_demo/mc_data.bed.gz")

## Parsed with column specification:
## cols(
##   coords = col_character(),
##   ins0 = col_double(),
##   ins1 = col_double()
## )

## # A tibble: 999 x 3
##    coords              ins0    ins1
##    <chr>              <dbl>   <dbl>
##  1 chr1,8668,8746   0       0.00537
##  2 chr1,17024,18924 0.00519 0.00410
##  3 chr1,18331,18642 0.00372 0.00869
##  4 chr1,23022,23145 0       0.00418
##  5 chr1,55676,56576 0.00417 0.0129 
##  6 chr1,69022,69135 0.00823 0.00424
##  7 chr1,69025,69143 0.00348 0.00361
##  8 chr1,69025,69148 0.00278 0.00760
##  9 chr1,69028,69133 0.00549 0      
## 10 chr1,76844,77500 0.00328 0.00379
## # … with 989 more rows
…
data <- read_tsv("../data/r_demo/experiment.tsv")

## Parsed with column specification:
## cols(
##   position = col_double(),
##   experiment_1 = col_double(),
##   experiment_2 = col_double(),
##   experiment_3 = col_double(),
##   experiment_4 = col_double()
## )

data

## # A tibble: 500 x 5
##    position experiment_1 experiment_2 experiment_3 experiment_4
##       <dbl>        <dbl>        <dbl>        <dbl>        <dbl>
##  1        1        0.295        0           0.691         0.224
##  2        2        0.262        0.194       0.0300        0.282
##  3        3        0.223        0.170       0.647         0.302
##  4        4        0.186        0.353       0.673         0.208
##  5        5        0.253        0.756       0.525         0.284
##  6        6        0.127        0           0.692         0.340
##  7        7        0.148        0.301       0.199         0.401
##  8        8        0.220        0.133       0.319         0.349
##  9        9        0.189        0.474       0.692         0.415
## 10       10        0.197        0.425       0.992         0.380
## # … with 490 more rows

tidy_data <- gather(data, experiment, mC, experiment_1:experiment_4)
tidy_data

## # A tibble: 2,000 x 3
##    position experiment      mC
##       <dbl> <chr>        <dbl>
##  1        1 experiment_1 0.295
##  2        2 experiment_1 0.262
##  3        3 experiment_1 0.223
##  4        4 experiment_1 0.186
##  5        5 experiment_1 0.253
##  6        6 experiment_1 0.127
##  7        7 experiment_1 0.148
##  8        8 experiment_1 0.220
##  9        9 experiment_1 0.189
## 10       10 experiment_1 0.197
## # … with 1,990 more rows

spread(tidy_data, experiment, mC)

## # A tibble: 500 x 5
##    position experiment_1 experiment_2 experiment_3 experiment_4
##       <dbl>        <dbl>        <dbl>        <dbl>        <dbl>
##  1        1        0.295        0           0.691         0.224
##  2        2        0.262        0.194       0.0300        0.282
##  3        3        0.223        0.170       0.647         0.302
##  4        4        0.186        0.353       0.673         0.208
##  5        5        0.253        0.756       0.525         0.284
##  6        6        0.127        0           0.692         0.340
##  7        7        0.148        0.301       0.199         0.401
##  8        8        0.220        0.133       0.319         0.349
##  9        9        0.189        0.474       0.692         0.415
## 10       10        0.197        0.425       0.992         0.380
## # … with 490 more rows
…
## # A tibble: 6 x 3
##   coords              ins0    ins1
##   <chr>              <dbl>   <dbl>
## 1 chr1,8668,8746   0       0.00537
## 2 chr1,17024,18924 0.00519 0.00410
## 3 chr1,18331,18642 0.00372 0.00869
## 4 chr1,23022,23145 0       0.00418
## 5 chr1,55676,56576 0.00417 0.0129 
## 6 chr1,69022,69135 0.00823 0.00424

# first column has three variables: chromsome, start, end
new_mc <- separate(mc, coords, c("chr", "start", "end"))
new_mc

## # A tibble: 999 x 5
##    chr   start end      ins0    ins1
##    <chr> <chr> <chr>   <dbl>   <dbl>
##  1 chr1  8668  8746  0       0.00537
##  2 chr1  17024 18924 0.00519 0.00410
##  3 chr1  18331 18642 0.00372 0.00869
##  4 chr1  23022 23145 0       0.00418
##  5 chr1  55676 56576 0.00417 0.0129 
##  6 chr1  69022 69135 0.00823 0.00424
##  7 chr1  69025 69143 0.00348 0.00361
##  8 chr1  69025 69148 0.00278 0.00760
##  9 chr1  69028 69133 0.00549 0      
## 10 chr1  76844 77500 0.00328 0.00379
## # … with 989 more rows

unite(new_mc, coords, chr, start, end, sep = ",")

## # A tibble: 999 x 3
##    coords              ins0    ins1
##    <chr>              <dbl>   <dbl>
##  1 chr1,8668,8746   0       0.00537
##  2 chr1,17024,18924 0.00519 0.00410
##  3 chr1,18331,18642 0.00372 0.00869
##  4 chr1,23022,23145 0       0.00418
##  5 chr1,55676,56576 0.00417 0.0129 
##  6 chr1,69022,69135 0.00823 0.00424
##  7 chr1,69025,69143 0.00348 0.00361
##  8 chr1,69025,69148 0.00278 0.00760
##  9 chr1,69028,69133 0.00549 0      
## 10 chr1,76844,77500 0.00328 0.00379
## # … with 989 more rows
…
# from earlier
coverages <- read_tsv("../data/r_demo/coverages.tsv", col_names = c("Accession", "Coverage"))

## Parsed with column specification:
## cols(
##   Accession = col_character(),
##   Coverage = col_double()
## )

# use mutate to create new columns
cov <- mutate(coverages, high = Coverage > 50)
cov

## # A tibble: 216 x 3
##    Accession Coverage high 
##    <chr>        <dbl> <lgl>
##  1 Aa-0            41 FALSE
##  2 Abd-0           67 TRUE 
##  3 Ag-0            47 FALSE
##  4 Ak-1            38 FALSE
##  5 Alst-1          42 FALSE
##  6 Altai-5         42 FALSE
##  7 Amel-1          60 TRUE 
##  8 An-1            39 FALSE
##  9 Ang-0           48 FALSE
## 10 Anholt-1        53 TRUE 
## # … with 206 more rows

# group rows by common variables
cov <- group_by(cov, high)
cov <- mutate(cov, group_average = mean(Coverage))
cov

## # A tibble: 216 x 4
## # Groups:   high [2]
##    Accession Coverage high  group_average
##    <chr>        <dbl> <lgl>         <dbl>
##  1 Aa-0            41 FALSE          37.3
##  2 Abd-0           67 TRUE           70.8
##  3 Ag-0            47 FALSE          37.3
##  4 Ak-1            38 FALSE          37.3
##  5 Alst-1          42 FALSE          37.3
##  6 Altai-5         42 FALSE          37.3
##  7 Amel-1          60 TRUE           70.8
##  8 An-1            39 FALSE          37.3
##  9 Ang-0           48 FALSE          37.3
## 10 Anholt-1        53 TRUE           70.8
## # … with 206 more rows

# use select to choose columns
select(cov, Accession, group_average)

## Adding missing grouping variables: `high`

## # A tibble: 216 x 3
## # Groups:   high [2]
##    high  Accession group_average
##    <lgl> <chr>             <dbl>
##  1 FALSE Aa-0               37.3
##  2 TRUE  Abd-0              70.8
##  3 FALSE Ag-0               37.3
##  4 FALSE Ak-1               37.3
##  5 FALSE Alst-1             37.3
##  6 FALSE Altai-5            37.3
##  7 TRUE  Amel-1             70.8
##  8 FALSE An-1               37.3
##  9 FALSE Ang-0              37.3
## 10 TRUE  Anholt-1           70.8
## # … with 206 more rows

# won't let you drop a column if the data is grouped by that column
cov <- ungroup(cov)
select(cov, Accession, group_average)

## # A tibble: 216 x 2
##    Accession group_average
##    <chr>             <dbl>
##  1 Aa-0               37.3
##  2 Abd-0              70.8
##  3 Ag-0               37.3
##  4 Ak-1               37.3
##  5 Alst-1             37.3
##  6 Altai-5            37.3
##  7 Amel-1             70.8
##  8 An-1               37.3
##  9 Ang-0              37.3
## 10 Anholt-1           70.8
## # … with 206 more rows

# can alse choose what NOT to include
select(cov, -high)

## # A tibble: 216 x 3
##    Accession Coverage group_average
##    <chr>        <dbl>         <dbl>
##  1 Aa-0            41          37.3
##  2 Abd-0           67          70.8
##  3 Ag-0            47          37.3
##  4 Ak-1            38          37.3
##  5 Alst-1          42          37.3
##  6 Altai-5         42          37.3
##  7 Amel-1          60          70.8
##  8 An-1            39          37.3
##  9 Ang-0           48          37.3
## 10 Anholt-1        53          70.8
## # … with 206 more rows

# sort using arrange
arrange(cov, Coverage)

## # A tibble: 216 x 4
##    Accession     Coverage high  group_average
##    <chr>            <dbl> <lgl>         <dbl>
##  1 Koln                11 FALSE          37.3
##  2 Se-0                15 FALSE          37.3
##  3 Ra-0                17 FALSE          37.3
##  4 Wei-0               17 FALSE          37.3
##  5 Old-1               18 FALSE          37.3
##  6 Pu2-8               19 FALSE          37.3
##  7 Ragl-1              19 FALSE          37.3
##  8 Zdr-1               19 FALSE          37.3
##  9 Bg-2                20 FALSE          37.3
## 10 Buckhorn-Pass       20 FALSE          37.3
## # … with 206 more rows

arrange(cov, desc(Coverage))

## # A tibble: 216 x 4
##    Accession Coverage high  group_average
##    <chr>        <dbl> <lgl>         <dbl>
##  1 Br-0           133 TRUE           70.8
##  2 Lan-0          127 TRUE           70.8
##  3 Kb-0           110 TRUE           70.8
##  4 El-0           107 TRUE           70.8
##  5 La-0           102 TRUE           70.8
##  6 Kl-5           100 TRUE           70.8
##  7 Kar-1           97 TRUE           70.8
##  8 Gel-1           96 TRUE           70.8
##  9 Nok-3           96 TRUE           70.8
## 10 Rennes-1        96 TRUE           70.8
## # … with 206 more rows

# useful for coordinates
dmrs <- read_tsv("../data/r_demo/c_dmrs.tsv.gz", col_names = c("chr", "start", "end"))

## Parsed with column specification:
## cols(
##   chr = col_character(),
##   start = col_double(),
##   end = col_double()
## )

dmrs

## # A tibble: 13,484 x 3
##    chr    start    end
##    <chr>  <dbl>  <dbl>
##  1 chr1     792    911
##  2 chr1   22665  22807
##  3 chr1   41392  41445
##  4 chr1   71457  71476
##  5 chr1   76839  77252
##  6 chr1  193333 193525
##  7 chr1  255844 255893
##  8 chr1  291887 291998
##  9 chr1  355668 356037
## 10 chr1  428072 428073
## # … with 13,474 more rows

arrange(dmrs, chr, desc(start))

## # A tibble: 13,484 x 3
##    chr      start      end
##    <chr>    <dbl>    <dbl>
##  1 chr1  30417725 30417837
##  2 chr1  30416592 30416901
##  3 chr1  30416104 30416138
##  4 chr1  30391058 30391076
##  5 chr1  30390110 30390285
##  6 chr1  30388868 30389254
##  7 chr1  30388263 30388288
##  8 chr1  30376878 30377010
##  9 chr1  30345730 30346096
## 10 chr1  30295026 30295310
## # … with 13,474 more rows
…
te_insertion_counts <- read_tsv("../data/r_demo/insertion_counts.tsv", col_names = c("Accession", "Insertions"))

## Parsed with column specification:
## cols(
##   Accession = col_character(),
##   Insertions = col_double()
## )

left_join(coverages, te_insertion_counts)

## Joining, by = "Accession"

## # A tibble: 216 x 3
##    Accession Coverage Insertions
##    <chr>        <dbl>      <dbl>
##  1 Aa-0            41        367
##  2 Abd-0           67        420
##  3 Ag-0            47        443
##  4 Ak-1            38        305
##  5 Alst-1          42        379
##  6 Altai-5         42        417
##  7 Amel-1          60        330
##  8 An-1            39        313
##  9 Ang-0           48        350
## 10 Anholt-1        53        343
## # … with 206 more rows
…
## Parsed with column specification:
## cols(
##   Accession = col_character(),
##   Coverage = col_double()
## )

## Joining, by = "Accession"

df

## # A tibble: 216 x 5
## # Groups:   high [2]
##    Accession Coverage high  group_av Insertions
##    <chr>        <dbl> <lgl>    <dbl>      <dbl>
##  1 Aa-0            41 FALSE     37.3        367
##  2 Abd-0           67 TRUE      70.8        420
##  3 Ag-0            47 FALSE     37.3        443
##  4 Ak-1            38 FALSE     37.3        305
##  5 Alst-1          42 FALSE     37.3        379
##  6 Altai-5         42 FALSE     37.3        417
##  7 Amel-1          60 TRUE      70.8        330
##  8 An-1            39 FALSE     37.3        313
##  9 Ang-0           48 FALSE     37.3        350
## 10 Anholt-1        53 TRUE      70.8        343
## # … with 206 more rows
…
## The following object is masked from 'package:graphics':
## 
##     layout

p <- ggplot(df, aes(Coverage, Insertions, label=Accession)) +
  geom_point() +
  theme_bw()

ggplotly(p)

# from earlier
dmrs

## # A tibble: 13,484 x 3
##    chr    start    end
##    <chr>  <dbl>  <dbl>
##  1 chr1     792    911
##  2 chr1   22665  22807
##  3 chr1   41392  41445
##  4 chr1   71457  71476
##  5 chr1   76839  77252
##  6 chr1  193333 193525
##  7 chr1  255844 255893
##  8 chr1  291887 291998
##  9 chr1  355668 356037
## 10 chr1  428072 428073
## # … with 13,474 more rows
…
Reporting

Use RMarkdown (included in RStudio). Press Knit HTML / Knit PDF to render the output document.

Displaying nice tables

# from before
data

## # A tibble: 500 x 5
##    position experiment_1 experiment_2 experiment_3 experiment_4
##       <dbl>        <dbl>        <dbl>        <dbl>        <dbl>
##  1        1        0.295        0           0.691         0.224
##  2        2        0.262        0.194       0.0300        0.282
##  3        3        0.223        0.170       0.647         0.302
##  4        4        0.186        0.353       0.673         0.208
##  5        5        0.253        0.756       0.525         0.284
##  6        6        0.127        0           0.692         0.340
##  7        7        0.148        0.301       0.199         0.401
##  8        8        0.220        0.133       0.319         0.349
##  9        9        0.189        0.474       0.692         0.415
## 10       10        0.197        0.425       0.992         0.380
## # … with 490 more rows
…
